<svg width="14" height="15" viewBox="0 0 14 15" fill="none" xmlns="http://www.w3.org/2000/svg">
<g clip-path="url(#clip0_69_4929)">
<path d="M12.3594 1.59375H11.7031V0.5H10.6094V1.59375H3.39062V0.5H2.29688V1.59375H1.64062C0.735984 1.59375 0 2.32973 0 3.23438V12.8594C0 13.764 0.735984 14.5 1.64062 14.5H12.3594C13.264 14.5 14 13.764 14 12.8594V3.23438C14 2.32973 13.264 1.59375 12.3594 1.59375ZM12.9062 12.8594C12.9062 13.1609 12.6609 13.4062 12.3594 13.4062H1.64062C1.33908 13.4062 1.09375 13.1609 1.09375 12.8594V5.64062H12.9062V12.8594ZM12.9062 4.54688H1.09375V3.23438C1.09375 2.93283 1.33908 2.6875 1.64062 2.6875H2.29688V3.78125H3.39062V2.6875H10.6094V3.78125H11.7031V2.6875H12.3594C12.6609 2.6875 12.9062 2.93283 12.9062 3.23438V4.54688Z" fill="#9FA1A2"/>
<path d="M3.17187 6.78906H2.07812V7.88281H3.17187V6.78906Z" fill="#9FA1A2"/>
<path d="M5.35937 6.78906H4.26562V7.88281H5.35937V6.78906Z" fill="#9FA1A2"/>
<path d="M7.54687 6.78906H6.45312V7.88281H7.54687V6.78906Z" fill="#9FA1A2"/>
<path d="M9.73437 6.78906H8.64062V7.88281H9.73437V6.78906Z" fill="#9FA1A2"/>
<path d="M11.9219 6.78906H10.8281V7.88281H11.9219V6.78906Z" fill="#9FA1A2"/>
<path d="M3.17187 8.97656H2.07812V10.0703H3.17187V8.97656Z" fill="#9FA1A2"/>
<path d="M5.35937 8.97656H4.26562V10.0703H5.35937V8.97656Z" fill="#9FA1A2"/>
<path d="M7.54687 8.97656H6.45312V10.0703H7.54687V8.97656Z" fill="#9FA1A2"/>
<path d="M9.73437 8.97656H8.64062V10.0703H9.73437V8.97656Z" fill="#9FA1A2"/>
<path d="M3.17187 11.1641H2.07812V12.2578H3.17187V11.1641Z" fill="#9FA1A2"/>
<path d="M5.35937 11.1641H4.26562V12.2578H5.35937V11.1641Z" fill="#9FA1A2"/>
<path d="M7.54687 11.1641H6.45312V12.2578H7.54687V11.1641Z" fill="#9FA1A2"/>
<path d="M9.73437 11.1641H8.64062V12.2578H9.73437V11.1641Z" fill="#9FA1A2"/>
<path d="M11.9219 8.97656H10.8281V10.0703H11.9219V8.97656Z" fill="#9FA1A2"/>
</g>
<defs>
<clipPath id="clip0_69_4929">
<rect width="14" height="14" fill="white" transform="translate(0 0.5)"/>
</clipPath>
</defs>
</svg>
