<svg width="30" height="31" viewBox="0 0 30 31" fill="none" xmlns="http://www.w3.org/2000/svg">
<path d="M29.375 8C29.375 7.66848 29.2433 7.35054 29.0089 7.11612C28.7745 6.8817 28.4565 6.75 28.125 6.75H15C14.6685 6.75 14.3505 6.8817 14.1161 7.11612C13.8817 7.35054 13.75 7.66848 13.75 8C13.75 8.33152 13.8817 8.64946 14.1161 8.88388C14.3505 9.1183 14.6685 9.25 15 9.25H28.125C28.4565 9.25 28.7745 9.1183 29.0089 8.88388C29.2433 8.64946 29.375 8.33152 29.375 8Z" fill="#F39C12"/>
<path d="M1.875 9.25001H5.21875C5.51362 10.084 6.09384 10.787 6.85685 11.2345C7.61986 11.6821 8.51655 11.8456 9.38842 11.696C10.2603 11.5464 11.0512 11.0934 11.6214 10.4171C12.1916 9.74075 12.5043 8.88462 12.5043 8.00001C12.5043 7.1154 12.1916 6.25927 11.6214 5.58293C11.0512 4.9066 10.2603 4.4536 9.38842 4.30401C8.51655 4.15442 7.61986 4.31787 6.85685 4.76547C6.09384 5.21306 5.51362 5.91599 5.21875 6.75001H1.875C1.54348 6.75001 1.22554 6.8817 0.991117 7.11612C0.756696 7.35054 0.625 7.66849 0.625 8.00001C0.625 8.33153 0.756696 8.64947 0.991117 8.88389C1.22554 9.11831 1.54348 9.25001 1.875 9.25001ZM8.75 6.75001C8.99723 6.75001 9.2389 6.82332 9.44446 6.96067C9.65002 7.09802 9.81024 7.29325 9.90485 7.52165C9.99946 7.75006 10.0242 8.00139 9.97598 8.24387C9.92775 8.48635 9.8087 8.70908 9.63388 8.88389C9.45907 9.05871 9.23634 9.17776 8.99386 9.22599C8.75139 9.27422 8.50005 9.24947 8.27165 9.15486C8.04324 9.06025 7.84801 8.90003 7.71066 8.69447C7.57331 8.48891 7.5 8.24723 7.5 8.00001C7.5 7.66849 7.6317 7.35054 7.86612 7.11612C8.10054 6.8817 8.41848 6.75001 8.75 6.75001Z" fill="#F39C12"/>
<path d="M28.125 14.25H23.5313C23.2364 13.416 22.6562 12.7131 21.8932 12.2655C21.1301 11.8179 20.2335 11.6544 19.3616 11.804C18.4897 11.9536 17.6988 12.4066 17.1286 13.0829C16.5585 13.7593 16.2457 14.6154 16.2457 15.5C16.2457 16.3846 16.5585 17.2407 17.1286 17.9171C17.6988 18.5934 18.4897 19.0464 19.3616 19.196C20.2335 19.3456 21.1301 19.1821 21.8932 18.7345C22.6562 18.287 23.2364 17.584 23.5313 16.75H28.125C28.4565 16.75 28.7745 16.6183 29.0089 16.3839C29.2433 16.1495 29.375 15.8315 29.375 15.5C29.375 15.1685 29.2433 14.8505 29.0089 14.6161C28.7745 14.3817 28.4565 14.25 28.125 14.25ZM20 16.75C19.7528 16.75 19.5111 16.6767 19.3055 16.5393C19.1 16.402 18.9398 16.2068 18.8452 15.9784C18.7506 15.75 18.7258 15.4986 18.774 15.2561C18.8223 15.0137 18.9413 14.7909 19.1161 14.6161C19.2909 14.4413 19.5137 14.3223 19.7561 14.274C19.9986 14.2258 20.25 14.2505 20.4784 14.3452C20.7068 14.4398 20.902 14.6 21.0394 14.8055C21.1767 15.0111 21.25 15.2528 21.25 15.5C21.25 15.8315 21.1183 16.1495 20.8839 16.3839C20.6495 16.6183 20.3315 16.75 20 16.75Z" fill="#F39C12"/>
<path d="M13.75 14.25H1.875C1.54348 14.25 1.22554 14.3817 0.991117 14.6161C0.756696 14.8505 0.625 15.1685 0.625 15.5C0.625 15.8315 0.756696 16.1495 0.991117 16.3839C1.22554 16.6183 1.54348 16.75 1.875 16.75H13.75C14.0815 16.75 14.3995 16.6183 14.6339 16.3839C14.8683 16.1495 15 15.8315 15 15.5C15 15.1685 14.8683 14.8505 14.6339 14.6161C14.3995 14.3817 14.0815 14.25 13.75 14.25Z" fill="#F39C12"/>
<path d="M28.125 21.75H17.5C17.1685 21.75 16.8505 21.8817 16.6161 22.1161C16.3817 22.3505 16.25 22.6685 16.25 23C16.25 23.3315 16.3817 23.6495 16.6161 23.8839C16.8505 24.1183 17.1685 24.25 17.5 24.25H28.125C28.4565 24.25 28.7745 24.1183 29.0089 23.8839C29.2433 23.6495 29.375 23.3315 29.375 23C29.375 22.6685 29.2433 22.3505 29.0089 22.1161C28.7745 21.8817 28.4565 21.75 28.125 21.75Z" fill="#F39C12"/>
<path d="M11.25 19.25C10.4753 19.2509 9.7198 19.4917 9.08747 19.9394C8.45515 20.387 7.977 21.0196 7.71875 21.75H1.875C1.54348 21.75 1.22554 21.8817 0.991117 22.1161C0.756696 22.3505 0.625 22.6685 0.625 23C0.625 23.3315 0.756696 23.6495 0.991117 23.8839C1.22554 24.1183 1.54348 24.25 1.875 24.25H7.71875C7.94798 24.8984 8.35107 25.4712 8.88395 25.9059C9.41682 26.3405 10.059 26.6203 10.7402 26.7146C11.4213 26.8089 12.1153 26.714 12.7462 26.4404C13.3771 26.1668 13.9207 25.725 14.3174 25.1633C14.7141 24.6016 14.9487 23.9416 14.9956 23.2555C15.0424 22.5695 14.8997 21.8837 14.5831 21.2733C14.2664 20.6628 13.788 20.1512 13.2002 19.7944C12.6123 19.4375 11.9377 19.2492 11.25 19.25ZM11.25 24.25C11.0028 24.25 10.7611 24.1767 10.5555 24.0393C10.35 23.902 10.1898 23.7068 10.0951 23.4784C10.0005 23.2499 9.97579 22.9986 10.024 22.7561C10.0722 22.5137 10.1913 22.2909 10.3661 22.1161C10.5409 21.9413 10.7637 21.8223 11.0061 21.774C11.2486 21.7258 11.4999 21.7505 11.7284 21.8452C11.9568 21.9398 12.152 22.1 12.2893 22.3055C12.4267 22.5111 12.5 22.7528 12.5 23C12.5 23.3315 12.3683 23.6495 12.1339 23.8839C11.8995 24.1183 11.5815 24.25 11.25 24.25Z" fill="#F39C12"/>
</svg>
