<svg width="25" height="25" viewBox="0 0 25 25" fill="none" xmlns="http://www.w3.org/2000/svg">
<g clip-path="url(#clip0_687_3248)">
<path d="M12.5001 0.816406C6.06593 0.816406 0.849472 5.65855 0.849472 11.6326C0.849472 15.0363 2.54322 18.0723 5.19068 20.0553V24.1806L9.15767 21.9974C10.2165 22.2907 11.3378 22.45 12.5001 22.45C18.9342 22.45 24.1506 17.6079 24.1506 11.634C24.1506 5.65859 18.9341 0.816406 12.5001 0.816406Z" fill="#1F8EEF"/>
<path d="M13.6578 15.382L10.6912 12.2087L4.9025 15.382L11.2694 8.60352L14.3086 11.7768L20.0261 8.60352L13.6578 15.382Z" fill="#FCFCFC"/>
</g>
<defs>
<clipPath id="clip0_687_3248">
<rect width="25" height="25" fill="white"/>
</clipPath>
</defs>
</svg>
